{
  "_comment": "Generated using Husky's JSON Generator v1.",
  "model": "block/cube_column",
  "textures": {
    "end": "th2:blocks/log_eternal_oak_top",
    "side": "th2:blocks/log_eternal_oak"
  }
}