{
  "_comment": "Generated using Husky's JSON Generator v1 v1.",
  "model": "block/cube_column",
  "textures": {
    "end": "th2:blocks/log_thornwyrd_top",
    "side": "th2:blocks/log_thornwyrd"
  }
}