{
	"credit": "Made with Blockbench, a free, modern block model editor by JannisX11",
	"textures": {"cap": "/#cap", "core": "/#core"},
	"elements": [
		{
			"name": "capb",
			"from": [6, 0, 6],
			"to": [10, 4, 10],
			"faces": {
				"north": {"uv": [0, 0, 4, 4], "texture": "#cap"},
				"east": {
					"uv": [0, 0, 4, 4],
					"texture": "#cap",
					"rotation": 180
				},
				"south": {"uv": [0, 0, 4, 4], "texture": "#cap"},
				"west": {"uv": [0, 0, 4, 4], "texture": "#cap"},
				"up": {"uv": [0, 0, 4, 4], "texture": "#cap"},
				"down": {"uv": [0, 0, 4, 4], "texture": "#cap"}
			},
			"type": "cube"
		},
		{
			"name": "capt",
			"from": [6, 27, 6],
			"to": [10, 31, 10],
			"faces": {
				"north": {"uv": [0, 0, 4, 4], "texture": "#cap"},
				"east": {"uv": [0, 0, 4, 4], "texture": "#cap"},
				"south": {"uv": [0, 0, 4, 4], "texture": "#cap"},
				"west": {"uv": [0, 0, 4, 4], "texture": "#cap"},
				"up": {"uv": [0, 0, 4, 4], "texture": "#cap"},
				"down": {"uv": [0, 0, 4, 4], "texture": "#cap"}
			},
			"type": "cube"
		},
		{
			"name": "handle",
			"from": [6.5, 4, 6.5],
			"to": [9.5, 27, 9.5],
			"faces": {
				"north": {"uv": [0, 0, 3, 16], "texture": "#core"},
				"east": {"uv": [0, 0, 3, 16], "texture": "#core"},
				"south": {"uv": [0, 0, 3, 16], "texture": "#core"},
				"west": {"uv": [0, 0, 3, 16], "texture": "#core"}
			},
			"type": "cube"
		}
	],
	"display": {
		"thirdperson_righthand": {
			"scale": [0.3, 0.5, 0.3],
			"rotation": [0, 0, 0],
			"translation": [0, 1, 0.2]
		},
		"thirdperson_lefthand": {
			"scale": [0.3, 0.5, 0.3],
			"rotation": [0, 0, 0],
			"translation": [0, 1, 0.2]
		},
		"fixed": {
			"scale": [0.55, 0.55, 0.55],
			"translation": [0, -4, 0],
			"rotation": [0, 0, 0]
		},
		"gui": {
			"scale": [0.4, 0.4, 0.4],
			"rotation": [-53, 50, 29],
			"translation": [1, -2.5, 0]
		},
		"ground": {
			"scale": [0.5, 0.5, 0.5],
			"rotation": [0, 0, 0],
			"translation": [0, 2, 0]
		},
		"firstperson_lefthand": {
			"scale": [0.5, 0.9, 0.5],
			"rotation": [-94, -13, 10],
			"translation": [6, 14, 0]
		},
		"firstperson_righthand": {
			"scale": [0.5, 0.9, 0.5],
			"rotation": [-94, -13, 10],
			"translation": [6, 14, 0]
		}
	}
}