{
  "forge_marker": 1,
  "defaults": {
    "model": "cube_all",
    "transform": "forge:default-block",
    "textures": {
      "all": "th2:blocks/planks_charged_weirwood"
    }
  },
  "variants": {
    "normal": [
      {}
    ],
    "inventory": [
      {}
    ]
  }
}