{
  "forge_marker": 1,
  "defaults": {
    "model": "minecraft:half_slab",
    "textures": {
      "bottom": "th2:blocks/planks_eternal_oak",
      "top": "th2:blocks/planks_eternal_oak",
      "side": "th2:blocks/planks_eternal_oak"
    },
    "transform": "forge:default-block"
  },
  "variants": {
    "half=top": [
      {
        "x": 180,
        "uvlock": true
      }
    ],
    "half=bottom": [
      {}
    ],
    "inventory": [
      {}
    ]
  }
}
