{
  "_comment": "Generated using Husky's JSON Generator v1.",
  "forge_marker": 1,
  "defaults": {
    "model": "th2:runes_unknown_z",
    "transform": "forge:default-block"
  },
  "variants": {
    "normal": [
      {}
    ],
    "inventory": [
      {}
    ]
  }
}