{
  "_comment": "Generated using Husky's JSON Generator v1.",
  "variants": {
    "half=bottom": {
      "model": "th2:half_unknown_z_slab"
    },
    "half=top": {
      "model": "th2:upper_unknown_z_slab"
    }
  }
}