{
  "forge_marker": 1,
  "defaults": {
    "model": "minecraft:cube_all",
    "transform": "forge:default-block"
  },
  "variants": {
    "normal": [
      {
        "textures": {
          "all": "th2:blocks/planks_weirwood"
        }
      }
    ],
    "prop=blarg": [
      {
        "textures": {
          "all": "th2:blocks/planks_weirwood"
        }
      }
    ]
  }
}
