{
  "credit": "Made with Blockbench, a free, modern block model editor by JannisX11",
  "textures": {
    "base": "blocks/stone",
    "sides": "th2:blocks/altar_sides",
    "aluminium": "th2:blocks/aluminum_brushed",
    "particle": "th2:blocks/aluminum_brushed"
  },
  "elements": [
    {
      "name": "cube",
      "from": [
        0,
        0,
        0
      ],
      "to": [
        16,
        1,
        16
      ],
      "faces": {
        "north": {
          "uv": [
            0,
            0,
            1,
            1
          ],
          "texture": "#base"
        },
        "east": {
          "uv": [
            0,
            0,
            1,
            1
          ],
          "texture": "#base"
        },
        "south": {
          "uv": [
            0,
            16,
            16,
            15
          ],
          "texture": "#base"
        },
        "west": {
          "uv": [
            0,
            0,
            1,
            1
          ],
          "texture": "#base"
        },
        "up": {
          "uv": [
            0,
            0,
            1,
            1
          ],
          "texture": "#base"
        },
        "down": {
          "uv": [
            0,
            0,
            1,
            1
          ],
          "texture": "#base"
        }
      },
      "rotation": {
        "origin": [
          8,
          8,
          8
        ],
        "axis": "z",
        "angle": 0
      }
    },
    {
      "name": "cube",
      "from": [
        3,
        1,
        3
      ],
      "to": [
        13,
        11,
        13
      ],
      "faces": {
        "north": {
          "uv": [
            0,
            0,
            10,
            10
          ],
          "texture": "#sides"
        },
        "east": {
          "uv": [
            0,
            0,
            10,
            10
          ],
          "texture": "#sides"
        },
        "south": {
          "uv": [
            0,
            0,
            10,
            10
          ],
          "texture": "#sides"
        },
        "west": {
          "uv": [
            0,
            0,
            10,
            10
          ],
          "texture": "#sides"
        },
        "up": {
          "uv": [
            3,
            4,
            13,
            14
          ],
          "texture": "#sides"
        }
      },
      "rotation": {
        "origin": [
          8,
          8,
          8
        ],
        "axis": "y",
        "angle": 0
      }
    },
    {
      "name": "cube",
      "from": [
        1,
        1,
        1
      ],
      "to": [
        4,
        13,
        4
      ],
      "faces": {
        "north": {
          "uv": [
            0,
            4,
            4,
            16
          ],
          "texture": "#aluminium"
        },
        "east": {
          "uv": [
            0,
            4,
            4,
            16
          ],
          "texture": "#aluminium"
        },
        "south": {
          "uv": [
            0,
            4,
            4,
            16
          ],
          "texture": "#aluminium"
        },
        "west": {
          "uv": [
            0,
            4,
            4,
            16
          ],
          "texture": "#aluminium"
        },
        "up": {
          "uv": [
            0,
            0,
            4,
            4
          ],
          "texture": "#aluminium"
        },
        "down": {
          "uv": [
            0,
            0,
            4,
            4
          ],
          "texture": "missingtexture"
        }
      }
    },
    {
      "name": "cube",
      "from": [
        6,
        1,
        1
      ],
      "to": [
        10,
        13,
        4
      ],
      "faces": {
        "north": {
          "uv": [
            0,
            4,
            4,
            16
          ],
          "texture": "#aluminium"
        },
        "east": {
          "uv": [
            0,
            4,
            4,
            16
          ],
          "texture": "#aluminium"
        },
        "south": {
          "uv": [
            0,
            4,
            4,
            16
          ],
          "texture": "#aluminium"
        },
        "west": {
          "uv": [
            0,
            4,
            4,
            16
          ],
          "texture": "#aluminium"
        },
        "up": {
          "uv": [
            0,
            0,
            4,
            4
          ],
          "texture": "#aluminium"
        },
        "down": {
          "uv": [
            0,
            0,
            4,
            4
          ],
          "texture": "missingtexture"
        }
      }
    },
    {
      "name": "cube",
      "from": [
        12,
        1,
        1
      ],
      "to": [
        15,
        13,
        4
      ],
      "faces": {
        "north": {
          "uv": [
            0,
            4,
            4,
            16
          ],
          "texture": "#aluminium"
        },
        "east": {
          "uv": [
            0,
            4,
            4,
            16
          ],
          "texture": "#aluminium"
        },
        "south": {
          "uv": [
            0,
            4,
            4,
            16
          ],
          "texture": "#aluminium"
        },
        "west": {
          "uv": [
            0,
            4,
            4,
            16
          ],
          "texture": "#aluminium"
        },
        "up": {
          "uv": [
            0,
            0,
            4,
            4
          ],
          "texture": "#aluminium"
        },
        "down": {
          "uv": [
            0,
            0,
            4,
            4
          ],
          "texture": "missingtexture"
        }
      }
    },
    {
      "name": "cube",
      "from": [
        12,
        1,
        6
      ],
      "to": [
        15,
        13,
        10
      ],
      "faces": {
        "north": {
          "uv": [
            0,
            4,
            4,
            16
          ],
          "texture": "#aluminium"
        },
        "east": {
          "uv": [
            0,
            4,
            4,
            16
          ],
          "texture": "#aluminium"
        },
        "south": {
          "uv": [
            0,
            4,
            4,
            16
          ],
          "texture": "#aluminium"
        },
        "west": {
          "uv": [
            0,
            4,
            4,
            16
          ],
          "texture": "#aluminium"
        },
        "up": {
          "uv": [
            0,
            0,
            4,
            4
          ],
          "texture": "#aluminium"
        },
        "down": {
          "uv": [
            0,
            0,
            4,
            4
          ],
          "texture": "missingtexture"
        }
      }
    },
    {
      "name": "cube",
      "from": [
        12,
        1,
        12
      ],
      "to": [
        15,
        13,
        15
      ],
      "faces": {
        "north": {
          "uv": [
            0,
            4,
            4,
            16
          ],
          "texture": "#aluminium"
        },
        "east": {
          "uv": [
            0,
            4,
            4,
            16
          ],
          "texture": "#aluminium"
        },
        "south": {
          "uv": [
            0,
            4,
            4,
            16
          ],
          "texture": "#aluminium"
        },
        "west": {
          "uv": [
            0,
            4,
            4,
            16
          ],
          "texture": "#aluminium"
        },
        "up": {
          "uv": [
            0,
            0,
            4,
            4
          ],
          "texture": "#aluminium"
        },
        "down": {
          "uv": [
            0,
            0,
            4,
            4
          ],
          "texture": "missingtexture"
        }
      }
    },
    {
      "name": "cube",
      "from": [
        6,
        1,
        12
      ],
      "to": [
        10,
        13,
        15
      ],
      "faces": {
        "north": {
          "uv": [
            0,
            4,
            4,
            16
          ],
          "texture": "#aluminium"
        },
        "east": {
          "uv": [
            0,
            4,
            4,
            16
          ],
          "texture": "#aluminium"
        },
        "south": {
          "uv": [
            0,
            4,
            4,
            16
          ],
          "texture": "#aluminium"
        },
        "west": {
          "uv": [
            0,
            4,
            4,
            16
          ],
          "texture": "#aluminium"
        },
        "up": {
          "uv": [
            0,
            0,
            4,
            4
          ],
          "texture": "#aluminium"
        },
        "down": {
          "uv": [
            0,
            0,
            4,
            4
          ],
          "texture": "missingtexture"
        }
      }
    },
    {
      "name": "cube",
      "from": [
        1,
        1,
        12
      ],
      "to": [
        4,
        13,
        15
      ],
      "faces": {
        "north": {
          "uv": [
            0,
            4,
            4,
            16
          ],
          "texture": "#aluminium"
        },
        "east": {
          "uv": [
            0,
            4,
            4,
            16
          ],
          "texture": "#aluminium"
        },
        "south": {
          "uv": [
            0,
            4,
            4,
            16
          ],
          "texture": "#aluminium"
        },
        "west": {
          "uv": [
            0,
            4,
            4,
            16
          ],
          "texture": "#aluminium"
        },
        "up": {
          "uv": [
            0,
            0,
            4,
            4
          ],
          "texture": "#aluminium"
        },
        "down": {
          "uv": [
            0,
            0,
            4,
            4
          ],
          "texture": "missingtexture"
        }
      }
    },
    {
      "name": "cube",
      "from": [
        1,
        1,
        6
      ],
      "to": [
        4,
        13,
        10
      ],
      "faces": {
        "north": {
          "uv": [
            0,
            4,
            4,
            16
          ],
          "texture": "#aluminium"
        },
        "east": {
          "uv": [
            0,
            4,
            4,
            16
          ],
          "texture": "#aluminium"
        },
        "south": {
          "uv": [
            0,
            4,
            4,
            16
          ],
          "texture": "#aluminium"
        },
        "west": {
          "uv": [
            0,
            4,
            4,
            16
          ],
          "texture": "#aluminium"
        },
        "up": {
          "uv": [
            0,
            0,
            4,
            4
          ],
          "texture": "#aluminium"
        },
        "down": {
          "uv": [
            0,
            0,
            4,
            4
          ],
          "texture": "missingtexture"
        }
      }
    },
    {
      "name": "cube",
      "from": [
        6,
        11,
        6
      ],
      "to": [
        10,
        14,
        10
      ],
      "faces": {
        "north": {
          "uv": [
            0,
            0,
            1,
            1
          ],
          "texture": "#aluminium"
        },
        "east": {
          "uv": [
            0,
            0,
            1,
            1
          ],
          "texture": "#aluminium"
        },
        "south": {
          "uv": [
            0,
            0,
            1,
            1
          ],
          "texture": "#aluminium"
        },
        "west": {
          "uv": [
            0,
            0,
            1,
            1
          ],
          "texture": "#aluminium"
        },
        "up": {
          "uv": [
            0,
            0,
            1,
            1
          ],
          "texture": "#aluminium"
        }
      }
    }
  ],
  "display": {
    "thirdperson_righthand": {
      "scale": [
        0.375,
        0.375,
        0.375
      ],
      "rotation": [
        75,
        45,
        0
      ],
      "translation": [
        0,
        2.5,
        0
      ]
    },
    "thirdperson_lefthand": {
      "scale": [
        0.375,
        0.375,
        0.375
      ],
      "rotation": [
        75,
        45,
        0
      ],
      "translation": [
        0,
        2.5,
        0
      ]
    },
    "firstperson_righthand": {
      "scale": [
        0.4,
        0.4,
        0.4
      ],
      "rotation": [
        0,
        45,
        0
      ],
      "translation": [
        0,
        0,
        0
      ]
    },
    "firstperson_lefthand": {
      "scale": [
        0.4,
        0.4,
        0.4
      ],
      "rotation": [
        0,
        225,
        0
      ],
      "translation": [
        0,
        0,
        0
      ]
    },
    "head": {
      "scale": [
        1,
        1,
        1
      ],
      "rotation": [
        0,
        180,
        0
      ],
      "translation": [
        0,
        14.5,
        0
      ]
    },
    "ground": {
      "scale": [
        0.7,
        0.7,
        0.7
      ],
      "rotation": [
        0,
        0,
        0
      ],
      "translation": [
        0,
        3,
        0
      ]
    },
    "fixed": {
      "scale": [
        0.7,
        0.7,
        0.7
      ],
      "translation": [
        0,
        0,
        0
      ],
      "rotation": [
        -90,
        0,
        0
      ]
    },
    "gui": {
      "scale": [
        0.625,
        0.625,
        0.625
      ],
      "rotation": [
        30,
        225,
        0
      ],
      "translation": [
        0,
        0,
        0
      ]
    }
  },
  "ambientocclusion": false
}