{
  "_comment": "Generated using Husky's JSON Generator v1.",
  "parent": "th2:block/cube_bottom_half_overlay_all",
  "textures": {
    "overlay": "th2:blocks/runes/uruz",
    "all": "th2:blocks/rune_stone"
  }
}