{
	"credit": "Made with Blockbench, a free, modern block model editor by JannisX11",
	"textures": {
		"0": "blocks/item_holder",
		"particle": "blocks/item_holder"
	},
	"elements": [
		{
			"name": "cube",
			"from": [6.25, 0, 6.25],
			"to": [7.25, 0.8000000000000007, 7.25],
			"faces": {
				"north": {
					"uv": [
						0.49928297996521,
						7.999440765380859,
						1.9980413913726807,
						9.29721279144287
					],
					"texture": "#0"
				},
				"east": {
					"uv": [
						0.49928297996521,
						7.999440765380859,
						1.9980413913726807,
						9.29721279144287
					],
					"texture": "#0"
				},
				"south": {
					"uv": [
						0.49928297996521,
						7.999440765380859,
						1.9980413913726807,
						9.29721279144287
					],
					"texture": "#0"
				},
				"west": {
					"uv": [
						0.49928297996521,
						7.999440765380859,
						1.9980413913726807,
						9.29721279144287
					],
					"texture": "#0"
				},
				"up": {
					"uv": [
						0.49928297996521,
						7.999440765380859,
						1.9980413913726807,
						9.29721279144287
					],
					"texture": "#0"
				},
				"down": {
					"uv": [
						0.49928297996521,
						7.999440765380859,
						1.9980413913726807,
						9.29721279144287
					],
					"texture": "#0"
				}
			},
			"type": "cube"
		},
		{
			"name": "cube",
			"from": [8.75, 0, 6.25],
			"to": [9.75, 0.8000000000000007, 7.25],
			"faces": {
				"north": {
					"uv": [
						0.49928297996521,
						7.999440765380859,
						1.9980413913726807,
						9.29721279144287
					],
					"texture": "#0"
				},
				"east": {
					"uv": [
						0.49928297996521,
						7.999440765380859,
						1.9980413913726807,
						9.29721279144287
					],
					"texture": "#0"
				},
				"south": {
					"uv": [
						0.49928297996521,
						7.999440765380859,
						1.9980413913726807,
						9.29721279144287
					],
					"texture": "#0"
				},
				"west": {
					"uv": [
						0.49928297996521,
						7.999440765380859,
						1.9980413913726807,
						9.29721279144287
					],
					"texture": "#0"
				},
				"up": {
					"uv": [
						0.49928297996521,
						7.999440765380859,
						1.9980413913726807,
						9.29721279144287
					],
					"texture": "#0"
				},
				"down": {
					"uv": [
						0.49928297996521,
						7.999440765380859,
						1.9980413913726807,
						9.29721279144287
					],
					"texture": "#0"
				}
			},
			"type": "cube"
		},
		{
			"name": "cube",
			"from": [8.75, 0, 8.75],
			"to": [9.75, 0.8000000000000007, 9.75],
			"faces": {
				"north": {
					"uv": [
						0.49928297996521,
						7.999440765380859,
						1.9980413913726807,
						9.29721279144287
					],
					"texture": "#0"
				},
				"east": {
					"uv": [
						0.49928297996521,
						7.999440765380859,
						1.9980413913726807,
						9.29721279144287
					],
					"texture": "#0"
				},
				"south": {
					"uv": [
						0.49928297996521,
						7.999440765380859,
						1.9980413913726807,
						9.29721279144287
					],
					"texture": "#0"
				},
				"west": {
					"uv": [
						0.49928297996521,
						7.999440765380859,
						1.9980413913726807,
						9.29721279144287
					],
					"texture": "#0"
				},
				"up": {
					"uv": [
						0.49928297996521,
						7.999440765380859,
						1.9980413913726807,
						9.29721279144287
					],
					"texture": "#0"
				},
				"down": {
					"uv": [
						0.49928297996521,
						7.999440765380859,
						1.9980413913726807,
						9.29721279144287
					],
					"texture": "#0"
				}
			},
			"type": "cube"
		},
		{
			"name": "cube",
			"from": [6.25, 0, 8.75],
			"to": [7.25, 0.8000000000000007, 9.75],
			"faces": {
				"north": {
					"uv": [
						0.49928297996521,
						7.999440765380859,
						1.9980413913726807,
						9.29721279144287
					],
					"texture": "#0"
				},
				"east": {
					"uv": [
						0.49928297996521,
						7.999440765380859,
						1.9980413913726807,
						9.29721279144287
					],
					"texture": "#0"
				},
				"south": {
					"uv": [
						0.49928297996521,
						7.999440765380859,
						1.9980413913726807,
						9.29721279144287
					],
					"texture": "#0"
				},
				"west": {
					"uv": [
						0.49928297996521,
						7.999440765380859,
						1.9980413913726807,
						9.29721279144287
					],
					"texture": "#0"
				},
				"up": {
					"uv": [
						0.49928297996521,
						7.999440765380859,
						1.9980413913726807,
						9.29721279144287
					],
					"texture": "#0"
				},
				"down": {
					"uv": [
						0.49928297996521,
						7.999440765380859,
						1.9980413913726807,
						9.29721279144287
					],
					"texture": "#0"
				}
			},
			"type": "cube"
		},
		{
			"name": "cube",
			"from": [6, 0.8, 6],
			"to": [10, 1.8, 10],
			"faces": {
				"north": {
					"uv": [
						2.4991431713104246,
						1.9998603820800782,
						6.498863554000854,
						2.999335765838623
					],
					"texture": "#0"
				},
				"east": {
					"uv": [
						0.49928297996521,
						1.9998603820800782,
						4.49900336265564,
						2.999335765838623
					],
					"texture": "#0"
				},
				"south": {
					"uv": [
						0.9994754314422607,
						0.4992828369140625,
						4.99919581413269,
						1.4987582206726073
					],
					"texture": "#0"
				},
				"west": {
					"uv": [
						0,
						0.4992828369140625,
						3.9997203826904295,
						1.4987582206726073
					],
					"texture": "#0"
				},
				"up": {"uv": [0, 0, 4, 4], "texture": "#0"},
				"down": {"uv": [0, 0, 4, 4], "texture": "#0"}
			},
			"type": "cube"
		},
		{
			"name": "cube",
			"from": [6.25, 1.7999999999999998, 6.25],
			"to": [6.75, 3.8, 6.75],
			"faces": {
				"north": {
					"uv": [
						8.499633741378783,
						0,
						9.498199701309204,
						1.9998601913452148
					],
					"texture": "#0",
					"rotation": 180
				},
				"east": {
					"uv": [
						8.499633741378783,
						0,
						9.498199701309204,
						1.9998601913452148
					],
					"texture": "#0",
					"rotation": 180
				},
				"south": {
					"uv": [
						8.499633741378783,
						0,
						9.498199701309204,
						1.9998601913452148
					],
					"texture": "#0",
					"rotation": 180
				},
				"west": {
					"uv": [
						8.499633741378783,
						0,
						9.498199701309204,
						1.9998601913452148
					],
					"texture": "#0",
					"rotation": 180
				},
				"up": {
					"uv": [
						8.499633741378783,
						0.4992828369140625,
						9.498199701309204,
						2.4991430282592773
					],
					"texture": "#0",
					"rotation": 180
				},
				"down": {
					"uv": [
						8.499633741378783,
						0,
						9.498199701309204,
						1.9998601913452148
					],
					"texture": "#0",
					"rotation": 180
				}
			},
			"type": "cube"
		},
		{
			"name": "cube",
			"from": [9.25, 1.7999999999999998, 6.25],
			"to": [9.75, 3.8, 6.75],
			"faces": {
				"north": {
					"uv": [
						8.499633741378783,
						0,
						9.498199701309204,
						1.9998601913452148
					],
					"texture": "#0",
					"rotation": 180
				},
				"east": {
					"uv": [
						8.499633741378783,
						0,
						9.498199701309204,
						1.9998601913452148
					],
					"texture": "#0",
					"rotation": 180
				},
				"south": {
					"uv": [
						8.499633741378783,
						0,
						9.498199701309204,
						1.9998601913452148
					],
					"texture": "#0",
					"rotation": 180
				},
				"west": {
					"uv": [
						8.499633741378783,
						0,
						9.498199701309204,
						1.9998601913452148
					],
					"texture": "#0",
					"rotation": 180
				},
				"up": {
					"uv": [
						8.499633741378783,
						0.4992828369140625,
						9.498199701309204,
						2.4991430282592773
					],
					"texture": "#0",
					"rotation": 180
				},
				"down": {
					"uv": [
						8.499633741378783,
						0,
						9.498199701309204,
						1.9998601913452148
					],
					"texture": "#0",
					"rotation": 180
				}
			},
			"type": "cube"
		},
		{
			"name": "cube",
			"from": [9.25, 1.7999999999999998, 9.25],
			"to": [9.75, 3.8, 9.75],
			"faces": {
				"north": {
					"uv": [
						8.499633741378783,
						0,
						9.498199701309204,
						1.9998601913452148
					],
					"texture": "#0",
					"rotation": 180
				},
				"east": {
					"uv": [
						8.499633741378783,
						0,
						9.498199701309204,
						1.9998601913452148
					],
					"texture": "#0",
					"rotation": 180
				},
				"south": {
					"uv": [
						8.499633741378783,
						0,
						9.498199701309204,
						1.9998601913452148
					],
					"texture": "#0",
					"rotation": 180
				},
				"west": {
					"uv": [
						8.499633741378783,
						0,
						9.498199701309204,
						1.9998601913452148
					],
					"texture": "#0",
					"rotation": 180
				},
				"up": {
					"uv": [
						8.499633741378783,
						0.4992828369140625,
						9.498199701309204,
						2.4991430282592773
					],
					"texture": "#0",
					"rotation": 180
				},
				"down": {
					"uv": [
						8.499633741378783,
						0,
						9.498199701309204,
						1.9998601913452148
					],
					"texture": "#0",
					"rotation": 180
				}
			},
			"type": "cube"
		},
		{
			"name": "cube",
			"from": [6.25, 1.7999999999999998, 9.25],
			"to": [6.75, 3.8, 9.75],
			"faces": {
				"north": {
					"uv": [
						8.499633741378783,
						0,
						9.498199701309204,
						1.9998601913452148
					],
					"texture": "#0",
					"rotation": 180
				},
				"east": {
					"uv": [
						8.499633741378783,
						0,
						9.498199701309204,
						1.9998601913452148
					],
					"texture": "#0",
					"rotation": 180
				},
				"south": {
					"uv": [
						8.499633741378783,
						0,
						9.498199701309204,
						1.9998601913452148
					],
					"texture": "#0",
					"rotation": 180
				},
				"west": {
					"uv": [
						8.499633741378783,
						0,
						9.498199701309204,
						1.9998601913452148
					],
					"texture": "#0",
					"rotation": 180
				},
				"up": {
					"uv": [
						8.499633741378783,
						0.4992828369140625,
						9.498199701309204,
						2.4991430282592773
					],
					"texture": "#0",
					"rotation": 180
				},
				"down": {
					"uv": [
						8.499633741378783,
						0,
						9.498199701309204,
						1.9998601913452148
					],
					"texture": "#0",
					"rotation": 180
				}
			},
			"type": "cube"
		}
	]
}